// Jest Snapshot v1, https://goo.gl/fbAQLP

exports[`should match snapshot 1`] = `
<input
  className="number-control form-control"
  max={Infinity}
  min={-Infinity}
  onChange={[Function]}
  onKeyDown={[Function]}
  placeholder="0"
  type="text"
/>
`;
