<svg xmlns="http://www.w3.org/2000/svg" width="275" height="108" viewBox="0 0 275 108">
    <g fill="none" fill-rule="evenodd">
        <g>
            <g>
                <g>
                    <path fill="#252525" stroke="#FDF446" d="M0 0H273V106H0z" transform="translate(-583 -1387) translate(584 1388)"/>
                    <g>
                        <path fill="#8F8F8F" fill-rule="nonzero" d="M2.208 11V6.02L2.1 3.932h.012L4.716 11h.816l2.604-7.068h.012L8.04 6.02V11h.912V3.08H7.476L5.748 7.904l-.612 1.968h-.024l-.6-1.98-1.74-4.812H1.296V11h.912zm10.11 0l.838-2.196h3.591L17.586 11h1.02l-3.072-7.92h-1.14L11.31 11h1.008zm4.084-3.096H13.5l1.086-2.844.348-1.068h.024l.372 1.104 1.072 2.808zM20.844 11l2.16-3.264L25.152 11h1.104l-2.652-4.08 2.568-3.84h-1.044L23.1 6.164 21.096 3.08h-1.128L22.5 6.968 19.728 11h1.116zm15.192.12c.616 0 1.152-.096 1.608-.288.456-.192.81-.462 1.062-.81.252-.348.378-.746.378-1.194 0-.504-.15-.926-.45-1.266-.3-.34-.83-.594-1.59-.762l-1.716-.384c-.528-.12-.88-.286-1.056-.498-.176-.212-.264-.458-.264-.738 0-.248.064-.47.192-.666.128-.196.33-.354.606-.474.276-.12.626-.18 1.05-.18.528 0 .978.106 1.35.318.372.212.706.574 1.002 1.086l.804-.624c-.336-.552-.756-.97-1.26-1.254-.504-.284-1.104-.426-1.8-.426-.608 0-1.134.108-1.578.324-.444.216-.784.502-1.02.858S33 4.888 33 5.312c0 .312.066.602.198.87s.348.5.648.696c.3.196.694.35 1.182.462l1.86.42c.464.104.78.258.948.462.168.204.252.434.252.69 0 .28-.08.518-.24.714-.16.196-.39.344-.69.444-.3.1-.654.15-1.062.15-.44 0-.83-.064-1.17-.192-.34-.128-.63-.308-.87-.54-.24-.232-.436-.5-.588-.804l-.84.684c.2.328.456.624.768.888s.686.474 1.122.63c.436.156.942.234 1.518.234zM42.81 11V7.904h1.836c.536 0 1.002-.098 1.398-.294.396-.196.706-.474.93-.834.224-.36.336-.788.336-1.284s-.112-.924-.336-1.284c-.224-.36-.534-.638-.93-.834-.396-.196-.862-.294-1.398-.294H41.85V11h.96zm1.692-3.996H42.81V3.98h1.692c.624 0 1.08.128 1.368.384.288.256.432.632.432 1.128 0 .488-.144.862-.432 1.122-.288.26-.744.39-1.368.39zM55.656 11v-.9H50.88V7.436h3.576v-.9H50.88V3.98h4.596v-.9H49.92V11h5.736zm3.582 0V5.408l-.048-1.2h.012l.84 1.488L63.354 11h1.188V3.08h-.912v5.592l.048 1.212h-.012l-.852-1.524-3.3-5.28h-1.188V11h.912zm11.202 0c1.24 0 2.214-.342 2.922-1.026.708-.684 1.062-1.662 1.062-2.934 0-1.272-.354-2.25-1.062-2.934-.708-.684-1.682-1.026-2.922-1.026h-2.556V11h2.556zm.096-.9h-1.692V3.98h1.692c.904 0 1.61.27 2.118.81.508.54.762 1.29.762 2.25s-.254 1.71-.762 2.25-1.214.81-2.118.81zM202.62 54v-1.656h-6.93v-3.528h5.22v-1.62h-5.22v-3.42h6.678V42.12h-8.604V54h8.856zm7.555 0V43.776h4.068V42.12H204.18v1.656h4.068V54h1.926zm8.49 0v-5.184h5.868V54h1.945V42.12h-1.944l-.001 5.04h-5.868v-5.04h-1.925V54h1.926z" transform="translate(-583 -1387) translate(584 1388) translate(22 16)"/>
                        <path fill="#FFF" fill-rule="nonzero" d="M14.812 54v-2.576H8.988c-.243 0-.56.005-.952.014l-1.176.028c-.392.01-.7.033-.924.07v-.056c2.035-1.307 3.677-2.53 4.928-3.668 1.25-1.139 2.165-2.254 2.744-3.346.579-1.092.868-2.226.868-3.402 0-.803-.145-1.559-.434-2.268-.29-.71-.705-1.33-1.246-1.862s-1.209-.947-2.002-1.246c-.793-.299-1.713-.448-2.758-.448-1.27 0-2.385.233-3.346.7-.961.467-1.722 1.13-2.282 1.988-.56.859-.905 1.876-1.036 3.052l2.604 1.204c.093-1.344.48-2.403 1.162-3.178.681-.775 1.6-1.162 2.758-1.162 1.101 0 1.96.308 2.576.924.616.616.924 1.419.924 2.408 0 .765-.163 1.517-.49 2.254-.327.737-.854 1.517-1.582 2.338-.728.821-1.694 1.717-2.898 2.688-1.204.97-2.693 2.09-4.466 3.36V54h12.852zm5.76.28c.635 0 1.143-.187 1.526-.56.383-.373.574-.868.574-1.484s-.191-1.106-.574-1.47c-.383-.364-.891-.546-1.526-.546-.653 0-1.171.182-1.554.546-.383.364-.574.854-.574 1.47s.191 1.11.574 1.484c.383.373.9.56 1.554.56zm12.144 0c.952 0 1.834-.135 2.646-.406.812-.27 1.526-.677 2.142-1.218.616-.541 1.092-1.204 1.428-1.988.336-.784.504-1.68.504-2.688 0-1.157-.243-2.175-.728-3.052-.485-.877-1.157-1.563-2.016-2.058-.859-.495-1.885-.742-3.08-.742-.933 0-1.74.13-2.422.392-.681.261-1.237.625-1.666 1.092h-.056l.056-.308.672-5.208h8.372V35.52H27.816l-1.12 10.192 2.464.476c.28-.373.607-.677.98-.91.373-.233.793-.406 1.26-.518.467-.112.97-.168 1.512-.168.784 0 1.437.135 1.96.406.523.27.924.667 1.204 1.19.28.523.42 1.176.42 1.96 0 .747-.15 1.386-.448 1.918-.299.532-.723.943-1.274 1.232-.55.29-1.218.434-2.002.434-1.12 0-1.965-.285-2.534-.854-.57-.57-.994-1.302-1.274-2.198l-2.8 1.456c.616 1.344 1.451 2.37 2.506 3.08 1.055.71 2.403 1.064 4.046 1.064zm16.764 0c1.288 0 2.422-.233 3.402-.7.98-.467 1.75-1.12 2.31-1.96.56-.84.84-1.82.84-2.94 0-.579-.103-1.11-.308-1.596-.205-.485-.49-.9-.854-1.246-.364-.345-.775-.616-1.232-.812-.457-.196-.957-.303-1.498-.322v-.056c.41-.075.817-.215 1.218-.42s.775-.5 1.12-.882c.345-.383.62-.84.826-1.372.205-.532.308-1.153.308-1.862 0-.915-.22-1.745-.658-2.492-.439-.747-1.101-1.335-1.988-1.764-.887-.43-1.993-.644-3.318-.644-1.083 0-2.077.173-2.982.518-.905.345-1.666.835-2.282 1.47-.616.635-1.055 1.381-1.316 2.24l2.744 1.148c.299-.896.733-1.582 1.302-2.058.57-.476 1.367-.714 2.394-.714.99 0 1.75.233 2.282.7.532.467.798 1.139.798 2.016 0 1.027-.261 1.783-.784 2.268-.523.485-1.39.728-2.604.728-.15 0-.303-.005-.462-.014-.159-.01-.322-.023-.49-.042v2.52c.261-.037.509-.06.742-.07.233-.01.462-.014.686-.014.765 0 1.395.093 1.89.28.495.187.859.485 1.092.896.233.41.35.924.35 1.54 0 .597-.135 1.13-.406 1.596-.27.467-.658.83-1.162 1.092-.504.261-1.12.392-1.848.392-.859 0-1.577-.126-2.156-.378-.579-.252-1.045-.62-1.4-1.106-.355-.485-.616-1.064-.784-1.736l-2.912 1.372c.467 1.4 1.34 2.487 2.618 3.262 1.279.775 2.786 1.162 4.522 1.162zM72.796 54v-2.576h-5.824c-.243 0-.56.005-.952.014l-1.176.028c-.392.01-.7.033-.924.07v-.056c2.035-1.307 3.677-2.53 4.928-3.668 1.25-1.139 2.165-2.254 2.744-3.346.579-1.092.868-2.226.868-3.402 0-.803-.145-1.559-.434-2.268-.29-.71-.705-1.33-1.246-1.862s-1.209-.947-2.002-1.246c-.793-.299-1.713-.448-2.758-.448-1.27 0-2.385.233-3.346.7-.961.467-1.722 1.13-2.282 1.988-.56.859-.905 1.876-1.036 3.052l2.604 1.204c.093-1.344.48-2.403 1.162-3.178.681-.775 1.6-1.162 2.758-1.162 1.101 0 1.96.308 2.576.924.616.616.924 1.419.924 2.408 0 .765-.163 1.517-.49 2.254-.327.737-.854 1.517-1.582 2.338-.728.821-1.694 1.717-2.898 2.688-1.204.97-2.693 2.09-4.466 3.36V54h12.852zm9.96.28c.952 0 1.834-.135 2.646-.406.812-.27 1.526-.677 2.142-1.218.616-.541 1.092-1.204 1.428-1.988.336-.784.504-1.68.504-2.688 0-1.157-.243-2.175-.728-3.052-.485-.877-1.157-1.563-2.016-2.058-.859-.495-1.885-.742-3.08-.742-.933 0-1.74.13-2.422.392-.681.261-1.237.625-1.666 1.092h-.056l.056-.308.672-5.208h8.372V35.52H77.856l-1.12 10.192 2.464.476c.28-.373.607-.677.98-.91.373-.233.793-.406 1.26-.518.467-.112.97-.168 1.512-.168.784 0 1.437.135 1.96.406.523.27.924.667 1.204 1.19.28.523.42 1.176.42 1.96 0 .747-.15 1.386-.448 1.918-.299.532-.723.943-1.274 1.232-.55.29-1.218.434-2.002.434-1.12 0-1.965-.285-2.534-.854-.57-.57-.994-1.302-1.274-2.198l-2.8 1.456c.616 1.344 1.451 2.37 2.506 3.08 1.055.71 2.403 1.064 4.046 1.064zm17.352 0c2.24 0 3.99-.807 5.25-2.422 1.26-1.615 1.89-3.98 1.89-7.098 0-3.117-.63-5.483-1.89-7.098-1.26-1.615-3.01-2.422-5.25-2.422-2.221 0-3.962.807-5.222 2.422-1.26 1.615-1.89 3.98-1.89 7.098 0 3.117.63 5.483 1.89 7.098 1.26 1.615 3 2.422 5.222 2.422zm0-2.548c-.896 0-1.647-.257-2.254-.77s-1.06-1.288-1.358-2.324c-.299-1.036-.448-2.329-.448-3.878 0-1.55.15-2.842.448-3.878.299-1.036.751-1.81 1.358-2.324.607-.513 1.358-.77 2.254-.77.896 0 1.647.257 2.254.77s1.064 1.288 1.372 2.324c.308 1.036.462 2.329.462 3.878 0 1.55-.154 2.842-.462 3.878-.308 1.036-.765 1.81-1.372 2.324-.607.513-1.358.77-2.254.77z" transform="translate(-583 -1387) translate(584 1388) translate(22 16)"/>
                        <path stroke="#8F8F8F" stroke-linecap="square" d="M0.32 69L228.68 69" transform="translate(-583 -1387) translate(584 1388) translate(22 16)"/>
                    </g>
                </g>
            </g>
        </g>
    </g>
</svg>
