// Jest Snapshot v1, https://goo.gl/fbAQLP

exports[`should match snapshot 1`] = `
<div
  className="grid"
  style={
    Object {
      "height": 300,
      "position": "relative",
      "width": 300,
    }
  }
>
  <iframe
    aria-hidden={true}
    frameBorder={0}
    src="about:blank"
    style={
      Object {
        "display": "block",
        "height": "100%",
        "left": 0,
        "opacity": 0,
        "overflow": "hidden",
        "pointerEvents": "none",
        "position": "absolute",
        "top": 0,
        "width": "100%",
        "zIndex": -1,
      }
    }
    tabIndex={-1}
  />
  <svg
    className="svg grid__axes"
    height={300}
    preserveAspectRatio="xMinYMin"
    viewBox="0 0 300 300"
    width={300}
    x={0}
    xmlns="http://www.w3.org/2000/svg"
    y={0}
  >
    <g>
      <line
        className="line"
        x1={0}
        x2="300"
        y1={0}
        y2={0}
      />
      <g />
    </g>
    <g>
      <g>
        <text
          alignmentBaseline="baseline"
          className="text"
          lengthAdjust="spacing"
          textAnchor="end"
          x="0"
          y="277.8"
        >
          NaN
        </text>
        <text
          alignmentBaseline="baseline"
          className="text"
          lengthAdjust="spacing"
          textAnchor="end"
          x="0"
          y="224.8"
        >
          NaN
        </text>
        <text
          alignmentBaseline="baseline"
          className="text"
          lengthAdjust="spacing"
          textAnchor="end"
          x="0"
          y="171.8"
        >
          NaN
        </text>
        <text
          alignmentBaseline="baseline"
          className="text"
          lengthAdjust="spacing"
          textAnchor="end"
          x="0"
          y="118.80000000000001"
        >
          NaN
        </text>
        <text
          alignmentBaseline="baseline"
          className="text"
          lengthAdjust="spacing"
          textAnchor="end"
          x="0"
          y="65.80000000000001"
        >
          NaN
        </text>
      </g>
    </g>
    <g
      className="grid-legend"
      style={
        Object {
          "transform": "translate(0px, 0px)",
        }
      }
    >
      <g
        className="grid-legend-item"
        style={
          Object {
            "transform": "translate(0, 0rem)",
          }
        }
      >
        <g
          className="block"
          transform="translate(0,0)"
        >
          <rect
            height={10}
            width={10}
            x={0}
            y={0}
          />
        </g>
        <text
          className="text"
          lengthAdjust="spacing"
          x={17}
          y="0.6rem"
        >
          Sold
        </text>
      </g>
      <g
        className="grid-legend-item"
        style={
          Object {
            "transform": "translate(0, 1.5rem)",
          }
        }
      >
        <g
          className="block block--empty"
          transform="translate(0,0)"
        >
          <rect
            height={10}
            width={10}
            x={0}
            y={0}
          />
        </g>
        <text
          className="text"
          lengthAdjust="spacing"
          x={17}
          y="0.6rem"
        >
          Price not met
        </text>
      </g>
      <g
        className="grid-legend-item"
        style={
          Object {
            "transform": "translate(0, 3rem)",
          }
        }
      >
        <g
          className="block block--closed"
          transform="translate(0,0)"
        >
          <rect
            height={10}
            width={10}
            x={0}
            y={0}
          />
          <text
            className="text"
            dominantBaseline="middle"
            lengthAdjust="spacing"
            textAnchor="middle"
            x={5}
            y={5.882352941176471}
          >
            X
          </text>
        </g>
        <text
          className="text"
          lengthAdjust="spacing"
          x={17}
          y="0.6rem"
        >
          Lot sold out
        </text>
      </g>
      <g
        className="grid-legend-item"
        style={
          Object {
            "transform": "translate(0, 4.5rem)",
          }
        }
      >
        <g
          className="block block--active"
          transform="translate(0,0)"
        >
          <rect
            height={10}
            width={10}
            x={0}
            y={0}
          />
        </g>
        <text
          className="text"
          lengthAdjust="spacing"
          x={17}
          y="0.6rem"
        >
          Buy
        </text>
      </g>
    </g>
  </svg>
  <svg
    className="svg svg--movable grid__data"
    height={300}
    preserveAspectRatio="xMinYMin"
    style={
      Object {
        "marginLeft": 0,
        "marginTop": 0,
      }
    }
    viewBox="0 0 300 300"
    width={300}
    x={0}
    xmlns="http://www.w3.org/2000/svg"
    y={0}
  >
    <g>
      <g />
      <g>
        <g
          className="block block--active"
          transform="translate(0,288)"
        >
          <rect
            height={10}
            width={10}
            x={0}
            y={0}
          />
        </g>
      </g>
    </g>
  </svg>
</div>
`;
