// Jest Snapshot v1, https://goo.gl/fbAQLP

exports[`should match snapshot 1`] = `
<div
  className="token-details-box"
>
  <div
    className="token-details-box__value"
  >
    <span
      title="20,000,000 ETH"
    >
      20,000,000 ETH
    </span>
  </div>
  <div
    className="token-details-box__label"
  >
    Tokens available
  </div>
</div>
`;
