<svg xmlns="http://www.w3.org/2000/svg" xmlns:xlink="http://www.w3.org/1999/xlink" width="29" height="24" viewBox="0 0 29 24">
    <defs>
        <path id="n89zgwcl8a" d="M0 0L29 0 29 24 0 24z"/>
    </defs>
    <g fill="none" fill-rule="evenodd">
        <g>
            <g>
                <g transform="translate(-1181 -972) translate(0 943) translate(1181 29)">
                    <mask id="9x32zrjvvb" fill="#fff">
                        <use xlink:href="#n89zgwcl8a"/>
                    </mask>
                    <path fill="#00B1FF" d="M23.814 4.814l-12.32 10.701c-.123.107-.201.254-.219.415l-.474 4.141c-.016.136-.208.154-.25.024l-1.95-6.177c-.09-.282.026-.59.282-.746L23.432 4.31c.334-.204.677.248.382.505m3.325-4.72L.616 10.246c-.86.329-.807 1.54.078 1.796l6.74 1.955 2.514 7.84c.263.82 1.32 1.068 1.93.455l3.486-3.496 6.837 4.93c.836.604 2.028.155 2.24-.843L28.97 1.617c.222-1.041-.821-1.91-1.831-1.524" mask="url(#9x32zrjvvb)"/>
                </g>
            </g>
        </g>
    </g>
</svg>