<svg xmlns="http://www.w3.org/2000/svg" xmlns:xlink="http://www.w3.org/1999/xlink" width="29" height="24" viewBox="0 0 29 24">
    <defs>
        <path id="kno7nkmosa" d="M0 0L29 0 29 24 0 24z"/>
    </defs>
    <g fill="none" fill-rule="evenodd">
        <g>
            <g>
                <g transform="translate(-1238 -972) translate(0 943) translate(1238 29)">
                    <mask id="a5o7884tnb" fill="#fff">
                        <use xlink:href="#kno7nkmosa"/>
                    </mask>
                    <path fill="#00B1FF" d="M28.2.444c-1.151.693-2.423 1.198-3.781 1.468C23.337.735 21.789 0 20.077 0c-3.283 0-5.948 2.713-5.948 6.058 0 .476.051.937.153 1.38-4.944-.253-9.327-2.662-12.264-6.332-.512.898-.805 1.94-.805 3.05 0 2.1 1.05 3.955 2.647 5.042-.973-.03-1.893-.306-2.696-.756v.074c0 2.937 2.051 5.386 4.774 5.941-.498.142-1.024.213-1.567.213-.383 0-.757-.036-1.12-.107.757 2.406 2.953 4.159 5.558 4.205-2.036 1.626-4.603 2.595-7.39 2.595-.48 0-.955-.027-1.419-.083C2.633 22.996 5.762 24 9.12 24c10.945 0 16.928-9.23 16.928-17.238 0-.264-.005-.527-.016-.785 1.163-.855 2.172-1.92 2.968-3.136-1.065.482-2.213.808-3.417.954 1.23-.749 2.172-1.937 2.617-3.351" mask="url(#a5o7884tnb)"/>
                </g>
            </g>
        </g>
    </g>
</svg>