<?xml version="1.0" encoding="UTF-8"?>
<svg width="99px" height="25px" viewBox="0 0 99 25" version="1.1" xmlns="http://www.w3.org/2000/svg" xmlns:xlink="http://www.w3.org/1999/xlink">
    <!-- Generator: Sketch 62 (91390) - https://sketch.com -->
    <title>Scrolltoseethenextavailablebuy</title>
    <desc>Created with Sketch.</desc>
    <g id="Page-1" stroke="none" stroke-width="1" fill="none" fill-rule="evenodd">
        <g id="Desktop-HD" transform="translate(-739.000000, -473.000000)" fill="#F4EDE9" fill-rule="nonzero">
            <path d="M745.910718,482.11 C746.475384,482.11 746.966718,482.022 747.384718,481.846 C747.802718,481.67 748.127218,481.4225 748.358218,481.1035 C748.589218,480.7845 748.704718,480.419667 748.704718,480.009 C748.704718,479.547 748.567218,479.160167 748.292218,478.8485 C748.017218,478.536833 747.531384,478.304 746.834718,478.15 L746.834718,478.15 L745.261718,477.798 C744.777718,477.688 744.455051,477.535833 744.293718,477.3415 C744.132384,477.147167 744.051718,476.921667 744.051718,476.665 C744.051718,476.437667 744.110384,476.234167 744.227718,476.0545 C744.345051,475.874833 744.530218,475.73 744.783218,475.62 C745.036218,475.51 745.357051,475.455 745.745718,475.455 C746.229718,475.455 746.642218,475.552167 746.983218,475.7465 C747.324218,475.940833 747.630384,476.272667 747.901718,476.742 L747.901718,476.742 L748.638718,476.17 C748.330718,475.664 747.945718,475.280833 747.483718,475.0205 C747.021718,474.760167 746.471718,474.63 745.833718,474.63 C745.276384,474.63 744.794218,474.729 744.387218,474.927 C743.980218,475.125 743.668551,475.387167 743.452218,475.7135 C743.235884,476.039833 743.127718,476.397333 743.127718,476.786 C743.127718,477.072 743.188218,477.337833 743.309218,477.5835 C743.430218,477.829167 743.628218,478.041833 743.903218,478.2215 C744.178218,478.401167 744.539384,478.542333 744.986718,478.645 L744.986718,478.645 L746.691718,479.03 C747.117051,479.125333 747.406718,479.2665 747.560718,479.4535 C747.714718,479.6405 747.791718,479.851333 747.791718,480.086 C747.791718,480.342667 747.718384,480.560833 747.571718,480.7405 C747.425051,480.920167 747.214218,481.055833 746.939218,481.1475 C746.664218,481.239167 746.339718,481.285 745.965718,481.285 C745.562384,481.285 745.204884,481.226333 744.893218,481.109 C744.581551,480.991667 744.315718,480.826667 744.095718,480.614 C743.875718,480.401333 743.696051,480.155667 743.556718,479.877 L743.556718,479.877 L742.786718,480.504 C742.970051,480.804667 743.204718,481.076 743.490718,481.318 C743.776718,481.56 744.119551,481.7525 744.519218,481.8955 C744.918884,482.0385 745.382718,482.11 745.910718,482.11 Z M752.819104,482.11 C753.20777,482.11 753.55427,482.045833 753.858604,481.9175 C754.162937,481.789167 754.42327,481.604 754.639604,481.362 C754.855937,481.12 755.026437,480.830333 755.151104,480.493 L755.151104,480.493 L754.337104,480.207 C754.28577,480.449 754.19227,480.654333 754.056604,480.823 C753.920937,480.991667 753.748604,481.12 753.539604,481.208 C753.330604,481.296 753.083104,481.34 752.797104,481.34 C752.430437,481.34 752.115104,481.2575 751.851104,481.0925 C751.587104,480.9275 751.385437,480.687333 751.246104,480.372 C751.10677,480.056667 751.037104,479.682667 751.037104,479.25 C751.037104,478.81 751.10677,478.434167 751.246104,478.1225 C751.385437,477.810833 751.587104,477.5725 751.851104,477.4075 C752.115104,477.2425 752.430437,477.16 752.797104,477.16 C753.178437,477.16 753.48827,477.2535 753.726604,477.4405 C753.964937,477.6275 754.14277,477.897 754.260104,478.249 L754.260104,478.249 L755.096104,477.853 C754.964104,477.552333 754.79177,477.292 754.579104,477.072 C754.366437,476.852 754.11527,476.683333 753.825604,476.566 C753.535937,476.448667 753.200437,476.39 752.819104,476.39 C752.30577,476.39 751.847437,476.503667 751.444104,476.731 C751.04077,476.958333 750.725437,477.2865 750.498104,477.7155 C750.27077,478.1445 750.157104,478.656 750.157104,479.25 C750.157104,479.844 750.27077,480.3555 750.498104,480.7845 C750.725437,481.2135 751.04077,481.541667 751.444104,481.769 C751.847437,481.996333 752.30577,482.11 752.819104,482.11 Z M757.73649,482 L757.73649,479.03 C757.73649,478.619333 757.81349,478.280167 757.96749,478.0125 C758.12149,477.744833 758.31399,477.545 758.54499,477.413 C758.77599,477.281 759.005157,477.215 759.23249,477.215 C759.40849,477.215 759.544157,477.222333 759.63949,477.237 C759.734823,477.251667 759.822823,477.273667 759.90349,477.303 L759.90349,477.303 L760.05749,476.5 C759.976823,476.456 759.879657,476.426667 759.76599,476.412 C759.652323,476.397333 759.547823,476.39 759.45249,476.39 C759.027157,476.39 758.66599,476.474333 758.36899,476.643 C758.07199,476.811667 757.84649,477.064667 757.69249,477.402 L757.69249,477.402 L757.57149,476.5 L756.85649,476.5 L756.85649,482 L757.73649,482 Z M763.599876,482.11 C764.120543,482.11 764.580709,481.996333 764.980376,481.769 C765.380043,481.541667 765.693543,481.2135 765.920876,480.7845 C766.148209,480.3555 766.261876,479.844 766.261876,479.25 C766.261876,478.656 766.148209,478.1445 765.920876,477.7155 C765.693543,477.2865 765.380043,476.958333 764.980376,476.731 C764.580709,476.503667 764.120543,476.39 763.599876,476.39 C763.086543,476.39 762.628209,476.503667 762.224876,476.731 C761.821543,476.958333 761.506209,477.2865 761.278876,477.7155 C761.051543,478.1445 760.937876,478.656 760.937876,479.25 C760.937876,479.844 761.051543,480.3555 761.278876,480.7845 C761.506209,481.2135 761.821543,481.541667 762.224876,481.769 C762.628209,481.996333 763.086543,482.11 763.599876,482.11 Z M763.599876,481.351 C763.225876,481.351 762.906876,481.266667 762.642876,481.098 C762.378876,480.929333 762.175376,480.687333 762.032376,480.372 C761.889376,480.056667 761.817876,479.682667 761.817876,479.25 C761.817876,478.81 761.889376,478.434167 762.032376,478.1225 C762.175376,477.810833 762.378876,477.570667 762.642876,477.402 C762.906876,477.233333 763.225876,477.149 763.599876,477.149 C763.973876,477.149 764.292876,477.233333 764.556876,477.402 C764.820876,477.570667 765.024376,477.810833 765.167376,478.1225 C765.310376,478.434167 765.381876,478.81 765.381876,479.25 C765.381876,479.682667 765.310376,480.056667 765.167376,480.372 C765.024376,480.687333 764.820876,480.929333 764.556876,481.098 C764.292876,481.266667 763.973876,481.351 763.599876,481.351 Z M769.353262,482.11 C769.499929,482.11 769.642929,482.097167 769.782262,482.0715 C769.921596,482.045833 770.049929,482.007333 770.167262,481.956 L770.167262,481.956 L770.310262,481.186 C770.148929,481.244667 770.020596,481.285 769.925262,481.307 C769.829929,481.329 769.708929,481.34 769.562262,481.34 C769.334929,481.34 769.169929,481.286833 769.067262,481.1805 C768.964596,481.074167 768.913262,480.881667 768.913262,480.603 L768.913262,480.603 L768.913262,473.97 L768.033262,473.97 L768.033262,480.636 C768.033262,481.134667 768.141429,481.505 768.357762,481.747 C768.574096,481.989 768.905929,482.11 769.353262,482.11 Z M772.873648,482.11 C773.020315,482.11 773.163315,482.097167 773.302648,482.0715 C773.441982,482.045833 773.570315,482.007333 773.687648,481.956 L773.687648,481.956 L773.830648,481.186 C773.669315,481.244667 773.540982,481.285 773.445648,481.307 C773.350315,481.329 773.229315,481.34 773.082648,481.34 C772.855315,481.34 772.690315,481.286833 772.587648,481.1805 C772.484982,481.074167 772.433648,480.881667 772.433648,480.603 L772.433648,480.603 L772.433648,473.97 L771.553648,473.97 L771.553648,480.636 C771.553648,481.134667 771.661815,481.505 771.878148,481.747 C772.094482,481.989 772.426315,482.11 772.873648,482.11 Z M780.420421,482.11 C780.721087,482.11 780.986921,482.066 781.217921,481.978 C781.448921,481.89 781.648754,481.769 781.817421,481.615 L781.817421,481.615 L781.509421,480.878 C781.384754,481.002667 781.245421,481.101667 781.091421,481.175 C780.937421,481.248333 780.754087,481.285 780.541421,481.285 C780.299421,481.285 780.101421,481.219 779.947421,481.087 C779.793421,480.955 779.716421,480.753333 779.716421,480.482 L779.716421,480.482 L779.716,477.259 L781.718421,477.259 L781.718421,476.5 L779.716,476.5 L779.716421,474.938 L778.836421,475.18 L778.836,476.5 L777.736421,476.5 L777.736421,477.259 L778.836,477.259 L778.836421,480.636 C778.842532,480.929333 778.895749,481.17556 778.996074,481.374681 L779.061921,481.4885 C779.204921,481.704833 779.397421,481.8625 779.639421,481.9615 C779.881421,482.0605 780.141754,482.11 780.420421,482.11 Z M785.458807,482.11 C785.979474,482.11 786.43964,481.996333 786.839307,481.769 C787.238974,481.541667 787.552474,481.2135 787.779807,480.7845 C788.00714,480.3555 788.120807,479.844 788.120807,479.25 C788.120807,478.656 788.00714,478.1445 787.779807,477.7155 C787.552474,477.2865 787.238974,476.958333 786.839307,476.731 C786.43964,476.503667 785.979474,476.39 785.458807,476.39 C784.945474,476.39 784.48714,476.503667 784.083807,476.731 C783.680474,476.958333 783.36514,477.2865 783.137807,477.7155 C782.910474,478.1445 782.796807,478.656 782.796807,479.25 C782.796807,479.844 782.910474,480.3555 783.137807,480.7845 C783.36514,481.2135 783.680474,481.541667 784.083807,481.769 C784.48714,481.996333 784.945474,482.11 785.458807,482.11 Z M785.458807,481.351 C785.084807,481.351 784.765807,481.266667 784.501807,481.098 C784.237807,480.929333 784.034307,480.687333 783.891307,480.372 C783.748307,480.056667 783.676807,479.682667 783.676807,479.25 C783.676807,478.81 783.748307,478.434167 783.891307,478.1225 C784.034307,477.810833 784.237807,477.570667 784.501807,477.402 C784.765807,477.233333 785.084807,477.149 785.458807,477.149 C785.832807,477.149 786.151807,477.233333 786.415807,477.402 C786.679807,477.570667 786.883307,477.810833 787.026307,478.1225 C787.169307,478.434167 787.240807,478.81 787.240807,479.25 C787.240807,479.682667 787.169307,480.056667 787.026307,480.372 C786.883307,480.687333 786.679807,480.929333 786.415807,481.098 C786.151807,481.266667 785.832807,481.351 785.458807,481.351 Z M795.821579,482.11 C796.254246,482.11 796.635579,482.040333 796.965579,481.901 C797.295579,481.761667 797.552246,481.561833 797.735579,481.3015 C797.918913,481.041167 798.010579,480.738667 798.010579,480.394 C798.010579,480.056667 797.907913,479.770667 797.702579,479.536 C797.497246,479.301333 797.137913,479.132667 796.624579,479.03 L796.624579,479.03 L795.249579,478.744 C794.948913,478.685333 794.743579,478.588167 794.633579,478.4525 C794.523579,478.316833 794.468579,478.168333 794.468579,478.007 C794.468579,477.845667 794.518079,477.700833 794.617079,477.5725 C794.716079,477.444167 794.859079,477.343333 795.046079,477.27 C795.233079,477.196667 795.458579,477.16 795.722579,477.16 C796.023246,477.16 796.312913,477.235167 796.591579,477.3855 C796.870246,477.535833 797.071913,477.772333 797.196579,478.095 L797.196579,478.095 L797.933579,477.611 C797.750246,477.222333 797.471579,476.921667 797.097579,476.709 C796.723579,476.496333 796.265246,476.39 795.722579,476.39 C795.289913,476.39 794.914079,476.465167 794.595079,476.6155 C794.276079,476.765833 794.030413,476.965667 793.858079,477.215 C793.685746,477.464333 793.599579,477.739333 793.599579,478.04 C793.599579,478.421333 793.715079,478.740333 793.946079,478.997 C794.177079,479.253667 794.560246,479.437 795.095579,479.547 L795.095579,479.547 L796.415579,479.822 C796.694246,479.880667 796.883079,479.974167 796.982079,480.1025 C797.081079,480.230833 797.130579,480.372 797.130579,480.526 C797.130579,480.768 797.020579,480.964167 796.800579,481.1145 C796.580579,481.264833 796.276246,481.34 795.887579,481.34 C795.447579,481.34 795.071746,481.244667 794.760079,481.054 C794.448413,480.863333 794.211913,480.599333 794.050579,480.262 L794.050579,480.262 L793.302579,480.801 C793.544579,481.219 793.891079,481.541667 794.342079,481.769 C794.793079,481.996333 795.286246,482.11 795.821579,482.11 Z M802.091965,482.11 C802.451299,482.11 802.775799,482.0605 803.065465,481.9615 C803.355132,481.8625 803.608132,481.721333 803.824465,481.538 C804.040799,481.354667 804.218632,481.138333 804.357965,480.889 L804.357965,480.889 L803.664965,480.482 C803.510965,480.746 803.307465,480.955 803.054465,481.109 C802.801465,481.263 802.473299,481.34 802.069965,481.34 C801.695965,481.34 801.375132,481.2575 801.107465,481.0925 C800.839799,480.9275 800.632632,480.687333 800.485965,480.372 C800.388188,480.161778 800.323002,479.925481 800.29041,479.663111 L800.276,479.503 L804.423965,479.503 C804.433743,479.449222 804.441891,479.390556 804.44841,479.327 L804.456965,479.228 C804.464299,479.125333 804.467965,479.011667 804.467965,478.887 C804.467965,478.417667 804.372632,477.994167 804.181965,477.6165 C803.991299,477.238833 803.714465,476.94 803.351465,476.72 C802.988465,476.5 802.550299,476.39 802.036965,476.39 C801.530965,476.39 801.079965,476.503667 800.683965,476.731 C800.287965,476.958333 799.976299,477.2865 799.748965,477.7155 C799.521632,478.1445 799.407965,478.656 799.407965,479.25 C799.407965,479.844 799.521632,480.3555 799.748965,480.7845 C799.976299,481.2135 800.293465,481.541667 800.700465,481.769 C801.107465,481.996333 801.571299,482.11 802.091965,482.11 Z M803.584,478.722 L800.306,478.722 L800.31959,478.638125 C800.343424,478.512847 800.375202,478.394699 800.414924,478.283681 L800.480465,478.1225 C800.623465,477.810833 800.825132,477.5725 801.085465,477.4075 C801.345799,477.2425 801.655632,477.16 802.014965,477.16 C802.484299,477.16 802.863799,477.303 803.153465,477.589 C803.443132,477.875 803.587965,478.282 803.587965,478.81 L803.584,478.722 Z M808.593352,482.11 C808.952685,482.11 809.277185,482.0605 809.566852,481.9615 C809.856518,481.8625 810.109518,481.721333 810.325852,481.538 C810.542185,481.354667 810.720018,481.138333 810.859352,480.889 L810.859352,480.889 L810.166352,480.482 C810.012352,480.746 809.808852,480.955 809.555852,481.109 C809.302852,481.263 808.974685,481.34 808.571352,481.34 C808.197352,481.34 807.876518,481.2575 807.608852,481.0925 C807.341185,480.9275 807.134018,480.687333 806.987352,480.372 C806.889574,480.161778 806.824389,479.925481 806.791796,479.663111 L806.777,479.503 L810.925352,479.503 C810.935129,479.449222 810.943277,479.390556 810.949796,479.327 L810.958352,479.228 C810.965685,479.125333 810.969352,479.011667 810.969352,478.887 C810.969352,478.417667 810.874018,477.994167 810.683352,477.6165 C810.492685,477.238833 810.215852,476.94 809.852852,476.72 C809.489852,476.5 809.051685,476.39 808.538352,476.39 C808.032352,476.39 807.581352,476.503667 807.185352,476.731 C806.789352,476.958333 806.477685,477.2865 806.250352,477.7155 C806.023018,478.1445 805.909352,478.656 805.909352,479.25 C805.909352,479.844 806.023018,480.3555 806.250352,480.7845 C806.477685,481.2135 806.794852,481.541667 807.201852,481.769 C807.608852,481.996333 808.072685,482.11 808.593352,482.11 Z M810.086,478.722 L806.808,478.722 L806.820977,478.638125 C806.84481,478.512847 806.876588,478.394699 806.91631,478.283681 L806.981852,478.1225 C807.124852,477.810833 807.326518,477.5725 807.586852,477.4075 C807.847185,477.2425 808.157018,477.16 808.516352,477.16 C808.985685,477.16 809.365185,477.303 809.654852,477.589 C809.944518,477.875 810.089352,478.282 810.089352,478.81 L810.086,478.722 Z M818.483124,482.11 C818.783791,482.11 819.049624,482.066 819.280624,481.978 C819.511624,481.89 819.711457,481.769 819.880124,481.615 L819.880124,481.615 L819.572124,480.878 C819.447457,481.002667 819.308124,481.101667 819.154124,481.175 C819.000124,481.248333 818.816791,481.285 818.604124,481.285 C818.362124,481.285 818.164124,481.219 818.010124,481.087 C817.856124,480.955 817.779124,480.753333 817.779124,480.482 L817.779124,480.482 L817.779,477.259 L819.781124,477.259 L819.781124,476.5 L817.779,476.5 L817.779124,474.938 L816.899124,475.18 L816.899,476.5 L815.799124,476.5 L815.799124,477.259 L816.899,477.259 L816.899124,480.636 C816.905235,480.929333 816.958453,481.17556 817.058777,481.374681 L817.124624,481.4885 C817.267624,481.704833 817.460124,481.8625 817.702124,481.9615 C817.944124,482.0605 818.204457,482.11 818.483124,482.11 Z M822.12451,482 L822.12451,479.085 C822.12451,478.615667 822.210677,478.239833 822.38301,477.9575 C822.555343,477.675167 822.77351,477.471667 823.03751,477.347 C823.30151,477.222333 823.56551,477.16 823.82951,477.16 C824.210843,477.16 824.531677,477.279167 824.79201,477.5175 C825.052343,477.755833 825.18251,478.179333 825.18251,478.788 L825.18251,478.788 L825.18251,482 L826.06251,482 L826.06251,478.48 C826.06251,478.003333 825.965343,477.611 825.77101,477.303 C825.576677,476.995 825.318177,476.765833 824.99551,476.6155 C824.672843,476.465167 824.31351,476.39 823.91751,476.39 C823.54351,476.39 823.198843,476.463333 822.88351,476.61 C822.568177,476.756667 822.315177,476.995 822.12451,477.325 L822.12451,477.325 L822.12451,473.97 L821.24451,473.97 L821.24451,482 L822.12451,482 Z M830.506896,482.11 C830.86623,482.11 831.19073,482.0605 831.480396,481.9615 C831.770063,481.8625 832.023063,481.721333 832.239396,481.538 C832.45573,481.354667 832.633563,481.138333 832.772896,480.889 L832.772896,480.889 L832.079896,480.482 C831.925896,480.746 831.722396,480.955 831.469396,481.109 C831.216396,481.263 830.88823,481.34 830.484896,481.34 C830.110896,481.34 829.790063,481.2575 829.522396,481.0925 C829.25473,480.9275 829.047563,480.687333 828.900896,480.372 C828.803118,480.161778 828.737933,479.925481 828.705341,479.663111 L828.691,479.503 L832.838896,479.503 C832.848674,479.449222 832.856822,479.390556 832.863341,479.327 L832.871896,479.228 C832.87923,479.125333 832.882896,479.011667 832.882896,478.887 C832.882896,478.417667 832.787563,477.994167 832.596896,477.6165 C832.40623,477.238833 832.129396,476.94 831.766396,476.72 C831.403396,476.5 830.96523,476.39 830.451896,476.39 C829.945896,476.39 829.494896,476.503667 829.098896,476.731 C828.702896,476.958333 828.39123,477.2865 828.163896,477.7155 C827.936563,478.1445 827.822896,478.656 827.822896,479.25 C827.822896,479.844 827.936563,480.3555 828.163896,480.7845 C828.39123,481.2135 828.708396,481.541667 829.115396,481.769 C829.522396,481.996333 829.98623,482.11 830.506896,482.11 Z M831.999,478.722 L828.721,478.722 L828.734521,478.638125 C828.758355,478.512847 828.790132,478.394699 828.829855,478.283681 L828.895396,478.1225 C829.038396,477.810833 829.240063,477.5725 829.500396,477.4075 C829.76073,477.2425 830.070563,477.16 830.429896,477.16 C830.89923,477.16 831.27873,477.303 831.568396,477.589 C831.858063,477.875 832.002896,478.282 832.002896,478.81 L831.999,478.722 Z M740.025525,495 L740.025525,492.074 C740.025525,491.604667 740.111691,491.230667 740.284025,490.952 C740.456358,490.673333 740.674525,490.471667 740.938525,490.347 C741.202525,490.222333 741.466525,490.16 741.730525,490.16 C742.111858,490.16 742.432691,490.279167 742.693025,490.5175 C742.953358,490.755833 743.083525,491.179333 743.083525,491.788 L743.083525,491.788 L743.083525,495 L743.963525,495 L743.963525,491.48 C743.963525,491.003333 743.866358,490.611 743.672025,490.303 C743.477691,489.995 743.219191,489.765833 742.896525,489.6155 C742.573858,489.465167 742.214525,489.39 741.818525,489.39 C741.539858,489.39 741.270358,489.430333 741.010025,489.511 C740.749691,489.591667 740.520525,489.721833 740.322525,489.9015 C740.203725,490.0093 740.099445,490.13756 740.009685,490.28628 L739.969,490.36 L739.915525,489.5 L739.145525,489.5 L739.145525,495 L740.025525,495 Z M748.407911,495.11 C748.767244,495.11 749.091744,495.0605 749.381411,494.9615 C749.671077,494.8625 749.924077,494.721333 750.140411,494.538 C750.356744,494.354667 750.534577,494.138333 750.673911,493.889 L750.673911,493.889 L749.980911,493.482 C749.826911,493.746 749.623411,493.955 749.370411,494.109 C749.117411,494.263 748.789244,494.34 748.385911,494.34 C748.011911,494.34 747.691077,494.2575 747.423411,494.0925 C747.155744,493.9275 746.948577,493.687333 746.801911,493.372 C746.704133,493.161778 746.638948,492.925481 746.606355,492.663111 L746.592,492.503 L750.739911,492.503 C750.749689,492.449222 750.757837,492.390556 750.764355,492.327 L750.772911,492.228 C750.780244,492.125333 750.783911,492.011667 750.783911,491.887 C750.783911,491.417667 750.688577,490.994167 750.497911,490.6165 C750.307244,490.238833 750.030411,489.94 749.667411,489.72 C749.304411,489.5 748.866244,489.39 748.352911,489.39 C747.846911,489.39 747.395911,489.503667 746.999911,489.731 C746.603911,489.958333 746.292244,490.2865 746.064911,490.7155 C745.837577,491.1445 745.723911,491.656 745.723911,492.25 C745.723911,492.844 745.837577,493.3555 746.064911,493.7845 C746.292244,494.2135 746.609411,494.541667 747.016411,494.769 C747.423411,494.996333 747.887244,495.11 748.407911,495.11 Z M749.9,491.722 L746.622,491.722 L746.635536,491.638125 C746.659369,491.512847 746.691147,491.394699 746.730869,491.283681 L746.796411,491.1225 C746.939411,490.810833 747.141077,490.5725 747.401411,490.4075 C747.661744,490.2425 747.971577,490.16 748.330911,490.16 C748.800244,490.16 749.179744,490.303 749.469411,490.589 C749.759077,490.875 749.903911,491.282 749.903911,491.81 L749.9,491.722 Z M752.720297,495 L754.285,492.879 L755.800297,495 L756.878297,495 L754.85,492.19 L756.845297,489.5 L755.811297,489.5 L754.379,491.534 L752.929297,489.5 L751.829297,489.5 L753.804,492.226 L751.697297,495 L752.720297,495 Z M760.420683,495.11 C760.72135,495.11 760.987183,495.066 761.218183,494.978 C761.449183,494.89 761.649016,494.769 761.817683,494.615 L761.817683,494.615 L761.509683,493.878 C761.385016,494.002667 761.245683,494.101667 761.091683,494.175 C760.937683,494.248333 760.75435,494.285 760.541683,494.285 C760.299683,494.285 760.101683,494.219 759.947683,494.087 C759.793683,493.955 759.716683,493.753333 759.716683,493.482 L759.716683,493.482 L759.716,490.259 L761.718683,490.259 L761.718683,489.5 L759.716,489.5 L759.716683,487.938 L758.836683,488.18 L758.836,489.5 L757.736683,489.5 L757.736683,490.259 L758.836,490.259 L758.836683,493.636 C758.842794,493.929333 758.896012,494.17556 758.996336,494.374681 L759.062183,494.4885 C759.205183,494.704833 759.397683,494.8625 759.639683,494.9615 C759.881683,495.0605 760.142016,495.11 760.420683,495.11 Z M768.550455,495.11 C768.807122,495.11 769.067455,495.067833 769.331455,494.9835 C769.595455,494.899167 769.833789,494.767167 770.046455,494.5875 C770.131522,494.515633 770.206615,494.43526 770.271735,494.34638 L770.309,494.287 L770.328935,494.36926 C770.340375,494.409007 770.353722,494.447067 770.368975,494.48344 L770.420455,494.5875 C770.515789,494.7525 770.647789,494.875333 770.816455,494.956 C770.985122,495.036667 771.175789,495.077 771.388455,495.077 C771.623122,495.077 771.813789,495.040333 771.960455,494.967 L771.960455,494.967 L772.004455,494.274 C771.872455,494.310667 771.736789,494.329 771.597455,494.329 C771.318789,494.329 771.179455,494.197 771.179455,493.933 L771.179455,493.933 L771.179455,491.271 C771.179455,490.838333 771.085955,490.4845 770.898955,490.2095 C770.711955,489.9345 770.457122,489.729167 770.134455,489.5935 C769.811789,489.457833 769.452455,489.39 769.056455,489.39 C768.469789,489.39 767.978455,489.5165 767.582455,489.7695 C767.186455,490.0225 766.915122,490.354333 766.768455,490.765 L766.768455,490.765 L767.483455,491.205 C767.608122,490.838333 767.802455,490.5725 768.066455,490.4075 C768.330455,490.2425 768.653122,490.16 769.034455,490.16 C769.437789,490.16 769.749455,490.271833 769.969455,490.4955 C770.189455,490.719167 770.299455,491.036333 770.299455,491.447 L770.299455,491.447 L770.299,491.658 L768.297455,492.052 C767.876313,492.133714 767.534639,492.278735 767.272435,492.487061 L767.147955,492.5965 C766.872955,492.864167 766.735455,493.203333 766.735455,493.614 C766.735455,493.944 766.817955,494.220833 766.982955,494.4445 C767.147955,494.668167 767.369789,494.835 767.648455,494.945 C767.927122,495.055 768.227789,495.11 768.550455,495.11 Z M768.671455,494.34 C768.341455,494.34 768.086622,494.2685 767.906955,494.1255 C767.727289,493.9825 767.637455,493.797333 767.637455,493.57 C767.637455,493.335333 767.725455,493.152 767.901455,493.02 C768.077455,492.888 768.345122,492.785333 768.704455,492.712 L768.704455,492.712 L770.299,492.385 L770.299455,492.965 C770.299455,493.152733 770.271295,493.32052 770.214975,493.46836 L770.167455,493.5755 C770.079455,493.747833 769.958455,493.890833 769.804455,494.0045 C769.650455,494.118167 769.476289,494.2025 769.281955,494.2575 C769.087622,494.3125 768.884122,494.34 768.671455,494.34 Z M775.557842,495 L777.845842,489.5 L776.921842,489.5 L775.128842,494.109 L773.390842,489.5 L772.389842,489.5 L774.677842,495 L775.557842,495 Z M780.475228,495.11 C780.731894,495.11 780.992228,495.067833 781.256228,494.9835 C781.520228,494.899167 781.758561,494.767167 781.971228,494.5875 C782.056294,494.515633 782.131388,494.43526 782.196508,494.34638 L782.234,494.287 L782.253708,494.36926 C782.265148,494.409007 782.278494,494.447067 782.293748,494.48344 L782.345228,494.5875 C782.440561,494.7525 782.572561,494.875333 782.741228,494.956 C782.909894,495.036667 783.100561,495.077 783.313228,495.077 C783.547894,495.077 783.738561,495.040333 783.885228,494.967 L783.885228,494.967 L783.929228,494.274 C783.797228,494.310667 783.661561,494.329 783.522228,494.329 C783.243561,494.329 783.104228,494.197 783.104228,493.933 L783.104228,493.933 L783.104228,491.271 C783.104228,490.838333 783.010728,490.4845 782.823728,490.2095 C782.636728,489.9345 782.381894,489.729167 782.059228,489.5935 C781.736561,489.457833 781.377228,489.39 780.981228,489.39 C780.394561,489.39 779.903228,489.5165 779.507228,489.7695 C779.111228,490.0225 778.839894,490.354333 778.693228,490.765 L778.693228,490.765 L779.408228,491.205 C779.532894,490.838333 779.727228,490.5725 779.991228,490.4075 C780.255228,490.2425 780.577894,490.16 780.959228,490.16 C781.362561,490.16 781.674228,490.271833 781.894228,490.4955 C782.114228,490.719167 782.224228,491.036333 782.224228,491.447 L782.224228,491.447 L782.224,491.658 L780.222228,492.052 C779.801085,492.133714 779.459411,492.278735 779.197207,492.487061 L779.072728,492.5965 C778.797728,492.864167 778.660228,493.203333 778.660228,493.614 C778.660228,493.944 778.742728,494.220833 778.907728,494.4445 C779.072728,494.668167 779.294561,494.835 779.573228,494.945 C779.851894,495.055 780.152561,495.11 780.475228,495.11 Z M780.596228,494.34 C780.266228,494.34 780.011394,494.2685 779.831728,494.1255 C779.652061,493.9825 779.562228,493.797333 779.562228,493.57 C779.562228,493.335333 779.650228,493.152 779.826228,493.02 C780.002228,492.888 780.269894,492.785333 780.629228,492.712 L780.629228,492.712 L782.224,492.385 L782.224228,492.965 C782.224228,493.152733 782.196068,493.32052 782.139748,493.46836 L782.092228,493.5755 C782.004228,493.747833 781.883228,493.890833 781.729228,494.0045 C781.575228,494.118167 781.401061,494.2025 781.206728,494.2575 C781.012394,494.3125 780.808894,494.34 780.596228,494.34 Z M785.832614,488.444 C786.030614,488.444 786.190114,488.3835 786.311114,488.2625 C786.432114,488.1415 786.492614,487.982 786.492614,487.784 C786.492614,487.586 786.432114,487.4265 786.311114,487.3055 C786.190114,487.1845 786.030614,487.124 785.832614,487.124 C785.634614,487.124 785.475114,487.1845 785.354114,487.3055 C785.233114,487.4265 785.172614,487.586 785.172614,487.784 C785.172614,487.982 785.233114,488.1415 785.354114,488.2625 C785.475114,488.3835 785.634614,488.444 785.832614,488.444 Z M786.272614,495 L786.272614,489.5 L785.392614,489.5 L785.392614,495 L786.272614,495 Z M789.749,495.11 C789.895667,495.11 790.038667,495.097167 790.178,495.0715 C790.317333,495.045833 790.445667,495.007333 790.563,494.956 L790.563,494.956 L790.706,494.186 C790.544667,494.244667 790.416333,494.285 790.321,494.307 C790.225667,494.329 790.104667,494.34 789.958,494.34 C789.730667,494.34 789.565667,494.286833 789.463,494.1805 C789.360333,494.074167 789.309,493.881667 789.309,493.603 L789.309,493.603 L789.309,486.97 L788.429,486.97 L788.429,493.636 C788.429,494.134667 788.537167,494.505 788.7535,494.747 C788.969833,494.989 789.301667,495.11 789.749,495.11 Z M793.456386,495.11 C793.713053,495.11 793.973386,495.067833 794.237386,494.9835 C794.501386,494.899167 794.739719,494.767167 794.952386,494.5875 C795.037453,494.515633 795.112546,494.43526 795.177666,494.34638 L795.215,494.287 L795.234866,494.36926 C795.246306,494.409007 795.259653,494.447067 795.274906,494.48344 L795.326386,494.5875 C795.421719,494.7525 795.553719,494.875333 795.722386,494.956 C795.891053,495.036667 796.081719,495.077 796.294386,495.077 C796.529053,495.077 796.719719,495.040333 796.866386,494.967 L796.866386,494.967 L796.910386,494.274 C796.778386,494.310667 796.642719,494.329 796.503386,494.329 C796.224719,494.329 796.085386,494.197 796.085386,493.933 L796.085386,493.933 L796.085386,491.271 C796.085386,490.838333 795.991886,490.4845 795.804886,490.2095 C795.617886,489.9345 795.363053,489.729167 795.040386,489.5935 C794.717719,489.457833 794.358386,489.39 793.962386,489.39 C793.375719,489.39 792.884386,489.5165 792.488386,489.7695 C792.092386,490.0225 791.821053,490.354333 791.674386,490.765 L791.674386,490.765 L792.389386,491.205 C792.514053,490.838333 792.708386,490.5725 792.972386,490.4075 C793.236386,490.2425 793.559053,490.16 793.940386,490.16 C794.343719,490.16 794.655386,490.271833 794.875386,490.4955 C795.095386,490.719167 795.205386,491.036333 795.205386,491.447 L795.205386,491.447 L795.205,491.658 L793.203386,492.052 C792.782243,492.133714 792.44057,492.278735 792.178366,492.487061 L792.053886,492.5965 C791.778886,492.864167 791.641386,493.203333 791.641386,493.614 C791.641386,493.944 791.723886,494.220833 791.888886,494.4445 C792.053886,494.668167 792.275719,494.835 792.554386,494.945 C792.833053,495.055 793.133719,495.11 793.456386,495.11 Z M793.577386,494.34 C793.247386,494.34 792.992553,494.2685 792.812886,494.1255 C792.633219,493.9825 792.543386,493.797333 792.543386,493.57 C792.543386,493.335333 792.631386,493.152 792.807386,493.02 C792.983386,492.888 793.251053,492.785333 793.610386,492.712 L793.610386,492.712 L795.205,492.385 L795.205386,492.965 C795.205386,493.152733 795.177226,493.32052 795.120906,493.46836 L795.073386,493.5755 C794.985386,493.747833 794.864386,493.890833 794.710386,494.0045 C794.556386,494.118167 794.382219,494.2025 794.187886,494.2575 C793.993553,494.3125 793.790053,494.34 793.577386,494.34 Z M801.068772,495.11 C801.523439,495.11 801.941439,494.996333 802.322772,494.769 C802.704106,494.541667 803.010272,494.2135 803.241272,493.7845 C803.472272,493.3555 803.587772,492.844 803.587772,492.25 C803.587772,491.648667 803.474106,491.135333 803.246772,490.71 C803.019439,490.284667 802.715106,489.958333 802.333772,489.731 C801.952439,489.503667 801.534439,489.39 801.079772,489.39 C800.632439,489.39 800.234606,489.501833 799.886272,489.7255 C799.637463,489.885262 799.440099,490.075891 799.29418,490.297388 L799.253,490.366 L799.253772,486.97 L798.373772,486.97 L798.373772,495 L799.143772,495 L799.199,494.028 L799.237052,494.09888 C799.290439,494.1904 799.351452,494.277813 799.420092,494.36112 L799.528772,494.483 C799.719439,494.681 799.946772,494.835 800.210772,494.945 C800.474772,495.055 800.760772,495.11 801.068772,495.11 Z M800.980772,494.34 C800.636106,494.34 800.333606,494.255667 800.073272,494.087 C799.812939,493.918333 799.611272,493.678167 799.468272,493.3665 C799.325272,493.054833 799.253772,492.69 799.253772,492.272 C799.253772,491.846667 799.327106,491.476333 799.473772,491.161 C799.620439,490.845667 799.823939,490.6 800.084272,490.424 C800.344606,490.248 800.647106,490.16 800.991772,490.16 C801.534439,490.16 801.956106,490.350667 802.256772,490.732 C802.557439,491.113333 802.707772,491.619333 802.707772,492.25 C802.707772,492.880667 802.555606,493.386667 802.251272,493.768 C801.946939,494.149333 801.523439,494.34 800.980772,494.34 Z M806.701158,495.11 C806.847825,495.11 806.990825,495.097167 807.130158,495.0715 C807.269492,495.045833 807.397825,495.007333 807.515158,494.956 L807.515158,494.956 L807.658158,494.186 C807.496825,494.244667 807.368492,494.285 807.273158,494.307 C807.177825,494.329 807.056825,494.34 806.910158,494.34 C806.682825,494.34 806.517825,494.286833 806.415158,494.1805 C806.312492,494.074167 806.261158,493.881667 806.261158,493.603 L806.261158,493.603 L806.261158,486.97 L805.381158,486.97 L805.381158,493.636 C805.381158,494.134667 805.489325,494.505 805.705658,494.747 C805.921992,494.989 806.253825,495.11 806.701158,495.11 Z M811.244545,495.11 C811.603878,495.11 811.928378,495.0605 812.218045,494.9615 C812.507711,494.8625 812.760711,494.721333 812.977045,494.538 C813.193378,494.354667 813.371211,494.138333 813.510545,493.889 L813.510545,493.889 L812.817545,493.482 C812.663545,493.746 812.460045,493.955 812.207045,494.109 C811.954045,494.263 811.625878,494.34 811.222545,494.34 C810.848545,494.34 810.527711,494.2575 810.260045,494.0925 C809.992378,493.9275 809.785211,493.687333 809.638545,493.372 C809.540767,493.161778 809.475582,492.925481 809.442989,492.663111 L809.428,492.503 L813.576545,492.503 C813.586322,492.449222 813.594471,492.390556 813.600989,492.327 L813.609545,492.228 C813.616878,492.125333 813.620545,492.011667 813.620545,491.887 C813.620545,491.417667 813.525211,490.994167 813.334545,490.6165 C813.143878,490.238833 812.867045,489.94 812.504045,489.72 C812.141045,489.5 811.702878,489.39 811.189545,489.39 C810.683545,489.39 810.232545,489.503667 809.836545,489.731 C809.440545,489.958333 809.128878,490.2865 808.901545,490.7155 C808.674211,491.1445 808.560545,491.656 808.560545,492.25 C808.560545,492.844 808.674211,493.3555 808.901545,493.7845 C809.128878,494.2135 809.446045,494.541667 809.853045,494.769 C810.260045,494.996333 810.723878,495.11 811.244545,495.11 Z M812.737,491.722 L809.459,491.722 L809.47217,491.638125 C809.496003,491.512847 809.527781,491.394699 809.567503,491.283681 L809.633045,491.1225 C809.776045,490.810833 809.977711,490.5725 810.238045,490.4075 C810.498378,490.2425 810.808211,490.16 811.167545,490.16 C811.636878,490.16 812.016378,490.303 812.306045,490.589 C812.595711,490.875 812.740545,491.282 812.740545,491.81 L812.737,491.722 Z M822.047317,495.11 C822.501984,495.11 822.919984,494.996333 823.301317,494.769 C823.68265,494.541667 823.988817,494.2135 824.219817,493.7845 C824.450817,493.3555 824.566317,492.844 824.566317,492.25 C824.566317,491.648667 824.45265,491.135333 824.225317,490.71 C823.997984,490.284667 823.69365,489.958333 823.312317,489.731 C822.930984,489.503667 822.512984,489.39 822.058317,489.39 C821.610984,489.39 821.21315,489.501833 820.864817,489.7255 C820.616007,489.885262 820.418643,490.075891 820.272725,490.297388 L820.232,490.365 L820.232317,486.97 L819.352317,486.97 L819.352317,495 L820.122317,495 L820.178,494.029 L820.215597,494.09888 C820.268984,494.1904 820.329997,494.277813 820.398637,494.36112 L820.507317,494.483 C820.697984,494.681 820.925317,494.835 821.189317,494.945 C821.453317,495.055 821.739317,495.11 822.047317,495.11 Z M821.959317,494.34 C821.61465,494.34 821.31215,494.255667 821.051817,494.087 C820.791484,493.918333 820.589817,493.678167 820.446817,493.3665 C820.303817,493.054833 820.232317,492.69 820.232317,492.272 C820.232317,491.846667 820.30565,491.476333 820.452317,491.161 C820.598984,490.845667 820.802484,490.6 821.062817,490.424 C821.32315,490.248 821.62565,490.16 821.970317,490.16 C822.512984,490.16 822.93465,490.350667 823.235317,490.732 C823.535984,491.113333 823.686317,491.619333 823.686317,492.25 C823.686317,492.880667 823.53415,493.386667 823.229817,493.768 C822.925484,494.149333 822.501984,494.34 821.959317,494.34 Z M828.394703,495.11 C828.834703,495.11 829.21787,495.034833 829.544203,494.8845 C829.870536,494.734167 830.129036,494.494 830.319703,494.164 L830.319703,494.164 L830.374703,495 L831.144703,495 L831.144703,489.5 L830.264703,489.5 L830.264703,492.492 C830.264703,492.814667 830.21887,493.093333 830.127203,493.328 C830.035536,493.562667 829.91087,493.755167 829.753203,493.9055 C829.595536,494.055833 829.417703,494.165833 829.219703,494.2355 C829.021703,494.305167 828.820036,494.34 828.614703,494.34 C828.174703,494.34 827.833703,494.2355 827.591703,494.0265 C827.349703,493.8175 827.228703,493.434333 827.228703,492.877 L827.228703,492.877 L827.228703,489.5 L826.348703,489.5 L826.348703,493.108 C826.348703,493.584667 826.44587,493.9715 826.640203,494.2685 C826.834536,494.5655 827.087536,494.78 827.399203,494.912 C827.71087,495.044 828.042703,495.11 828.394703,495.11 Z M833.576089,497.365 C833.840089,497.365 834.072923,497.319167 834.274589,497.2275 C834.476256,497.135833 834.659589,496.9855 834.824589,496.7765 C834.989589,496.5675 835.141756,496.283333 835.281089,495.924 L835.281089,495.924 L837.866089,489.5 L836.920089,489.5 L835.633089,492.976 L835.237089,494.065 L834.896089,493.086 L833.521089,489.5 L832.520089,489.5 L834.269089,493.68 L834.819089,494.989 L834.533089,495.704 C834.393756,496.063333 834.239756,496.301667 834.071089,496.419 C833.902423,496.536333 833.722756,496.595 833.532089,496.595 C833.370756,496.595 833.207589,496.563833 833.042589,496.5015 C832.877589,496.439167 832.721756,496.342 832.575089,496.21 L832.575089,496.21 L832.333089,496.98 C832.494423,497.097333 832.679589,497.190833 832.888589,497.2605 C833.097589,497.330167 833.326756,497.365 833.576089,497.365 Z" id="Scrolltoseethenextavailablebuy"></path>
        </g>
    </g>
</svg>