// Jest Snapshot v1, https://goo.gl/fbAQLP

exports[`should match snapshot 1`] = `
<div
  className="menu"
>
  <button class="button-0-0-6">connect wallet</button>
  <button
    className="btn btn-link muted"
    disabled={false}
    type="button"
  >
    <img
      alt="Help"
      src="Help.svg"
    />
  </button>
</div>
`;
